﻿<?xml version="1.0" encoding="utf-8"?>
<svg version="1.1" xmlns:xlink="http://www.w3.org/1999/xlink" width="28px" height="31px" xmlns="http://www.w3.org/2000/svg">
  <g transform="matrix(1 0 0 1 -1449 -49 )">
    <path d="M 14.0133686683491 0  C 12.6827108500361 0  11.147672259235 0.183120663138677  9.35853448476525 0.525517871714786  C 8.38886349240105 0.71109066476675  7.37978645555643 0.935679526454695  6.17769770270518 1.22632541103873  C 5.77957632965305 1.32258356820906  3.38707640299603 1.91827943016436  2.80528383456083 2.05378517099002  C 1.76741007290361 2.2955215784445  1.10560603404024 2.41132539112346  0.73809009933187 2.41132539112346  C 0.73809009933187 2.41132539112346  0 2.41132539112346  0 2.41132539112346  L 0 3.14981007055483  C 0 3.14981007055483  0 19.4773662950975  0 19.4773662950975  C 0.561260391804374 24.2387967890609  4.52601058700688 28.6780779921823  13.8379967299363 30.9570732568288  C 13.8379967299363 30.9570732568288  14.0133918075414 31  14.0133918075414 31  C 14.0133918075414 31  14.1887791720825 30.9570616810779  14.1887791720825 30.9570616810779  C 23.4988409055192 28.6780316891784  27.4491175359405 24.2411891109276  27.9950096475281 19.5629998421715  C 27.9950096475281 19.5629998421715  28 3.14981007055483  28 3.14981007055483  L 28 2.41132539112346  C 28 2.41132539112346  27.2619060441361 2.41132539112346  27.2619060441361 2.41132539112346  C 26.9011197578539 2.41132539112346  26.2444911850007 2.29565277028881  25.2105472295018 2.05392793858529  C 24.638862631568 1.92027238862261  22.2724097223724 1.32976825097622  21.8453219370975 1.22637557262627  C 20.6400245495812 0.934579830112785  19.6260574300979 0.70884496907905  18.6520362695821 0.522687600603237  C 16.8703493150317 0.182167592975685  15.3400079802667 0  14.0133686683491 0  Z M 25 18.9932761068036  C 25 18.9932761068036  24.9189934065698 18.9076001153094  24.9189934065698 18.9076001153094  C 24.5066375737235 22.4398710685389  21.4556502257655 25.866578890112  13.8364464040524 27.7319995827751  C 13.8364464040524 27.7319995827751  14.1872751245832 27.7319880070241  14.1872751245832 27.7319880070241  C 6.56470069385899 25.8662470519176  3.49993010035661 22.4348896370392  3.08085618868027 18.9061415706875  C 3.08085618868027 18.9061415706875  3.08600851549823 4.6474942357739  3.08600851549823 4.6474942357739  C 3.08600851549823 4.6474942357739  2.34791841616636 5.38598084449709  2.34791841616636 5.38598084449709  C 2.81328228203122 5.38598084449709  3.46230577368299 5.27241886892217  4.47859452545994 5.03572563030586  C 5.00209946850102 4.91380210394875  7.11247479308673 4.38838262611718  7.45304513836617 4.30604238019347  C 8.48920274326143 4.05552769492196  9.35529499784379 3.862768289811  10.1821123300354 3.70452970337698  C 11.67570091437 3.41868389686081  12.9435975301116 3.26742162967654  14.0118800469781 3.26742162967654  C 15.0766531196796 3.26742162967654  16.3401070105004 3.41780028120362  17.8267075587615 3.70189429074005  C 18.6573582838102 3.86063642234115  19.5277929934801 4.05441449353725  20.5669586933739 4.30598836002229  C 20.9328973064741 4.39458144076028  23.0197593551548 4.91532045661733  23.5341821652196 5.03558479200243  C 24.5478639013312 5.27256742439292  25.1917042139086 5.38598084449709  25.65211243609 5.38598084449709  C 25.65211243609 5.38598084449709  25 4.6474942357739  25 4.6474942357739  L 25 18.9932761068036  Z M 5.80948759222793 8.6761295319065  L 5.80948759222793 9.16845200843014  L 6.30155022947054 9.16845200843014  L 13.1764472221882 9.16845200843014  L 13 8.6761295319065  L 13 20.6464322539755  L 13.1764472221882 20.15410784816  L 9.88222839787676 20.15410784816  L 10.3742833220553 20.6464322539755  L 10.3742833220553 12.4033978687673  L 10.3742833220553 11.9110734629519  L 9.88222839787676 11.9110734629519  L 8.1594769661048 11.9110734629519  L 7.66741432886219 11.9110734629519  L 7.66741432886219 12.4033978687673  L 7.66741432886219 20.6464322539755  L 8.1594769661048 20.15410784816  L 5.72864696740914 20.15410784816  L 5.23659204323062 20.15410784816  L 5.23659204323062 20.6464322539755  L 5.23659204323062 22.0800388497139  L 5.23659204323062 22.5723632555293  L 5.72864696740914 22  L 22.2713761717832 22  L 22.7634388090258 22.5723632555293  L 22.7634388090258 22.0800388497139  L 22.7634388090258 20.6464322539755  L 22.7634388090258 20.15410784816  L 22.2713761717832 20.15410784816  L 14.7705833101138 20.15410784816  L 15.2626459473564 20.6464322539755  L 15.2626459473564 14.4104170058486  L 14.7705833101138 14.9027433409559  L 21.4836255092516 14.9027433409559  L 21.9756881464942 14.9027433409559  L 21.9756881464942 14.4104170058486  L 21.9756881464942 12.9051507237458  L 21.9756881464942 12.412830176514  L 21.4836255092516 12.412830176514  L 14.7705833101138 12.412830176514  L 15.2626459473564 12.9051507237458  L 15.2626459473564 8.6761295319065  L 14.7705833101138 9.16845200843014  L 21.8416967969711 9.16845200843014  L 22.3337671472778 9.16845200843014  L 22.3337671472778 8.6761295319065  L 22.3337671472778 7.09920163414752  L 22.3337671472778 6.60687722833206  L 21.8416967969711 7  L 6.30155022947054 7  L 5.80948759222793 6.60687722833206  L 5.80948759222793 7.09920163414752  L 5.80948759222793 8.6761295319065  Z " fill-rule="nonzero" fill="#ff3848" stroke="none" transform="matrix(1 0 0 1 1449 49 )" />
  </g>
</svg>